{
    "model": {
        "pkey": "pkey",
        "rkey": "rkey",
        "mkey": "mkey",
        "order": [
            "display_order"
        ]
    },
    "orgData": [
        {
            "template": "tableLabel",
            "style": {
                "labelAlign": "topRight",
                "labelAlignBase": "0000",
                "labelOffsetX": 40,
                "labelOffsetY": 130
            },
            "fields": {
                "pkey": {
                    "value": "0101"
                }
            }
        },
        {
            "layout": {
                "level": 1
            },
            "template": "FullBox",
            "fields": {
                "pkey": {
                    "value": "0000"
                },
                "dept_nm": {
                    "value": "소프트인"
                },
                "position": {
                    "value": "대표"
                },
                "emp_nm": {
                    "value": "공명현"
                },
                "photo": {
                    "value": "img/photo/16001.png"
                },
                "display_order": {
                    "value": 1
                }
            }
        },
        {
            "layout": {
                "level": 2
            },
            "template": "리스트템플릿",
            "link": {
                "template": "linkDot"
            },
            "fields": {
                "pkey": {
                    "value": "1000"
                },
                "rkey": {
                    "value": "0000"
                },
                "dept_nm": {
                    "value": "S/W 개발팀",
                    "style": {
                        "backgroundColor": "#FF9900"
                    }
                },
                "position": {
                    "value": "부장"
                },
                "emp_nm": {
                    "value": "현재준"
                },
                "photo": {
                    "value": "img/photo/17002.png"
                },
                "display_order": {
                    "value": 1
                }
            }
        },
        {
            "layout": {
                "level": 3
            },
            "template": "리스트템플릿",
            "fields": {
                "pkey": {
                    "value": "19002"
                },
                "mkey": {
                    "value": "1000"
                },
                "dept_nm": {
                    "value": "S/W 개발팀"
                },
                "position": {
                    "value": "차장"
                },
                "emp_nm": {
                    "value": "백승훈"
                },
                "photo": {
                    "value": "img/photo/19002.png"
                },
                "display_order": {
                    "value": 1
                }
            }
        },
        {
            "layout": {
                "level": 3
            },
            "template": "리스트템플릿",
            "fields": {
                "pkey": {
                    "value": "20001"
                },
                "mkey": {
                    "value": "1000"
                },
                "dept_nm": {
                    "value": "S/W 개발팀"
                },
                "position": {
                    "value": "사원"
                },
                "emp_nm": {
                    "value": "박홍준"
                },
                "photo": {
                    "value": "img/photo/20001.png"
                },
                "display_order": {
                    "value": 2
                }
            }
        },
        {
            "layout": {
                "level": 3
            },
            "template": "리스트템플릿",
            "fields": {
                "pkey": {
                    "value": "20002"
                },
                "mkey": {
                    "value": "1000"
                },
                "dept_nm": {
                    "value": "S/W 개발팀"
                },
                "position": {
                    "value": "사원"
                },
                "emp_nm": {
                    "value": "선우은미",
                    "style": {
                        "fontSize": 10
                    }
                },
                "photo": {
                    "value": "img/photo/20002.png"
                },
                "display_order": {
                    "value": 3
                }
            }
        },
        {
            "layout": {
                "level": 3
            },
            "template": "리스트템플릿",
            "fields": {
                "pkey": {
                    "value": "20003"
                },
                "mkey": {
                    "value": "1000"
                },
                "dept_nm": {
                    "value": "S/W 개발팀"
                },
                "position": {
                    "value": "사원"
                },
                "emp_nm": {
                    "value": "양호열"
                },
                "photo": {
                    "value": "img/photo/20003.png"
                },
                "display_order": {
                    "value": 4
                }
            }
        },
        {
            "layout": {
                "level": 2
            },
            "template": "HalfBox",
            "fields": {
                "pkey": {
                    "value": "2000"
                },
                "rkey": {
                    "value": "0000"
                },
                "dept_nm": {
                    "value": "기술연구소"
                },
                "position": {
                    "value": "부장"
                },
                "emp_nm": {
                    "value": "윤재웅"
                },
                "photo": {
                    "value": "img/photo/17001.png"
                },
                "display_order": {
                    "value": 2
                }
            }
        },
        {
            "layout": {
                "level": 2
            },
            "template": "HalfBox",
            "toExpandable": true,
            "fields": {
                "pkey": {
                    "value": "3000"
                },
                "rkey": {
                    "value": "0000"
                },
                "dept_nm": {
                    "value": "기술지원팀"
                },
                "position": {
                    "value": "차장"
                },
                "emp_nm": {
                    "value": "장태성"
                },
                "photo": {
                    "value": "img/photo/17003.png"
                },
                "display_order": {
                    "value": 3
                }
            }
        },
        {
            "layout": {
                "level": 2
            },
            "template": "HalfBox",
            "fields": {
                "pkey": {
                    "value": "4000"
                },
                "rkey": {
                    "value": "0000"
                },
                "dept_nm": {
                    "value": "영업팀"
                },
                "position": {
                    "value": "팀장"
                },
                "emp_nm": {
                    "value": "공명현"
                },
                "photo": {
                    "value": "img/photo/16001.png"
                },
                "display_order": {
                    "value": 4
                }
            }
        },
        {
            "layout": {
                "level": 2,
                "supporter": 2
            },
            "template": "OrgBox",
            "fields": {
                "pkey": {
                    "value": "5000"
                },
                "rkey": {
                    "value": "0000"
                },
                "dept_nm": {
                    "value": "경영지원팀"
                },
                "position": {
                    "value": "대리"
                },
                "emp_nm": {
                    "value": "최선우"
                },
                "photo": {
                    "value": "img/photo/18002.png"
                },
                "display_order": {
                    "value": 5
                }
            }
        }
    ],
    "template": {
        "nodes": {
            "OrgBox": {
                "units": [
                    {
                        "binding": "emp_nm",
                        "maxLines": 1,
                        "style": {
                            "backgroundColor": "#005174",
                            "borderColor": "#b1b1b1",
                            "borderRadius": 6,
                            "fontColor": "#ffffff",
                            "fontSize": 12,
                            "height": 29,
                            "position": "1 1",
                            "width": 89
                        },
                        "type": "text"
                    }
                ],
                "style": {
                    "backgroundColor": "#f5f5f5",
                    "borderColor": "#b1b1b1",
                    "borderRadius": 10,
                    "borderWidth": 1,
                    "height": 30,
                    "width": 90
                }
            },
            "PhotoBox": {
                "units": [
                    {
                        "binding": "dept_nm",
                        "maxLines": 1,
                        "style": {
                            "backgroundColor": "#005174",
                            "borderColor": "#b1b1b1",
                            "borderRadius": "8 8 0 0",
                            "fontColor": "#ffffff",
                            "fontSize": 12,
                            "height": 26,
                            "position": "1 1",
                            "width": 89
                        },
                        "type": "text"
                    },
                    {
                        "binding": "photo",
                        "type": "picture",
                        "style": {
                            "borderColor": "#b1b1b1",
                            "height": 100,
                            "position": "11 26",
                            "width": 67
                        }
                    },
                    {
                        "binding": "position",
                        "style": {
                            "backgroundColor": "transparent",
                            "borderColor": "transparent",
                            "borderRadius": "0 0 0 8",
                            "fontSize": 12,
                            "height": 25,
                            "position": "1 123",
                            "width": 40
                        },
                        "type": "text"
                    },
                    {
                        "binding": "emp_nm",
                        "style": {
                            "backgroundColor": "transparent",
                            "borderColor": "transparent",
                            "borderRadius": "0 0 8 0",
                            "fontSize": 12,
                            "height": 25,
                            "position": "33 123",
                            "width": 50
                        },
                        "type": "text"
                    }
                ],
                "style": {
                    "backgroundColor": "#f5f5f5",
                    "borderColor": "#b1b1b1",
                    "borderRadius": 10,
                    "borderWidth": 1,
                    "height": 150,
                    "width": 90
                }
            },
            "FullBox": {
                "units": [
                    {
                        "binding": "dept_nm",
                        "maxLines": 1,
                        "style": {
                            "backgroundColor": "#3399ff",
                            "borderColor": "#b1b1b1",
                            "borderRadius": "8 8 8 8",
                            "fontColor": "#ffffff",
                            "fontSize": 12,
                            "height": 26,
                            "position": "5 5",
                            "width": 222
                        },
                        "type": "text"
                    },
                    {
                        "binding": "photo",
                        "type": "picture",
                        "style": {
                            "borderColor": "#b1b1b1",
                            "borderWidth": 0.5,
                            "height": 100,
                            "position": "8 38",
                            "width": 100
                        }
                    },
                    {
                        "binding": "emp_nm",
                        "style": {
                            "backgroundColor": "transparent",
                            "borderColor": "transparent",
                            "borderRadius": "0 0 8 0",
                            "fontSize": 12,
                            "height": 25,
                            "position": "143 40",
                            "width": 50
                        },
                        "type": "text"
                    },
                    {
                        "style": {
                            "backgroundColor": "gray",
                            "height": 0.3,
                            "position": "120 65",
                            "width": 100
                        },
                        "type": "text"
                    },
                    {
                        "binding": "position",
                        "style": {
                            "backgroundColor": "transparent",
                            "borderColor": "transparent",
                            "borderRadius": "0 0 0 8",
                            "fontSize": 12,
                            "height": 25,
                            "position": "148 65",
                            "width": 40
                        },
                        "type": "text"
                    },
                    {
                        "style": {
                            "backgroundColor": "gray",
                            "height": 0.3,
                            "position": "120 90",
                            "width": 100
                        },
                        "type": "text"
                    },
                    {
                        "binding": "pkey",
                        "style": {
                            "backgroundColor": "transparent",
                            "borderColor": "transparent",
                            "borderRadius": "0 0 8 0",
                            "fontSize": 12,
                            "height": 25,
                            "position": "143 90",
                            "width": 50
                        },
                        "type": "text"
                    },
                    {
                        "style": {
                            "backgroundColor": "gray",
                            "height": 0.3,
                            "position": "120 115",
                            "width": 100
                        },
                        "type": "text"
                    },
                    {
                        "binding": "display_order",
                        "style": {
                            "backgroundColor": "transparent",
                            "borderColor": "transparent",
                            "borderRadius": "0 0 0 8",
                            "fontSize": 12,
                            "height": 25,
                            "position": "148 115",
                            "width": 40
                        },
                        "type": "text"
                    }
                ],
                "style": {
                    "backgroundColor": "transparent",
                    "borderColor": "#b1b1b1",
                    "borderRadius": 10,
                    "borderWidth": 1,
                    "height": 150,
                    "width": 230
                }
            },
            "HalfBox": {
                "units": [
                    {
                        "binding": "dept_nm",
                        "maxLines": 1,
                        "style": {
                            "backgroundColor": "#339966",
                            "borderColor": "#b1b1b1",
                            "borderRadius": "6 6 0 0",
                            "fontColor": "#ffffff",
                            "fontSize": 12,
                            "height": 29,
                            "position": "1 1",
                            "width": 149
                        },
                        "type": "text"
                    },
                    {
                        "binding": "emp_nm",
                        "style": {
                            "backgroundColor": "transparent",
                            "borderColor": "transparent",
                            "borderRadius": "0 0 6 6",
                            "fontSize": 12,
                            "height": 25,
                            "position": "50 33",
                            "width": 50
                        },
                        "type": "text"
                    }
                ],
                "style": {
                    "backgroundColor": "transparent",
                    "borderColor": "#b1b1b1",
                    "borderRadius": 10,
                    "borderWidth": 1,
                    "height": 60,
                    "width": 150
                }
            },
            "VertiHalfBox": {
                "units": [
                    {
                        "binding": "dept_nm",
                        "forceWrap": "true",
                        "style": {
                            "backgroundColor": "#999999",
                            "borderColor": "#b1b1b1",
                            "borderRadius": "8 8 0 0",
                            "fontColor": "#ffffff",
                            "fontSize": 12,
                            "height": 125,
                            "position": "1 1",
                            "width": 34
                        },
                        "type": "text"
                    },
                    {
                        "binding": "emp_nm",
                        "forceWrap": "true",
                        "style": {
                            "backgroundColor": "transparent",
                            "borderColor": "transparent",
                            "borderRadius": "0 0 8 8",
                            "fontSize": 12,
                            "height": 60,
                            "position": "1 126",
                            "width": 34
                        },
                        "type": "text"
                    }
                ],
                "style": {
                    "backgroundColor": "transparent",
                    "borderColor": "#000000",
                    "borderRadius": 10,
                    "borderWidth": 1,
                    "height": 185,
                    "width": 35
                }
            },
            "리스트템플릿": {
                "units": [
                    {
                        "binding": "dept_nm",
                        "style": {
                            "backgroundColor": "#4EA98B",
                            "borderColor": "#b1b1b1",
                            "borderRadius": "6 6 0 0",
                            "column": 0,
                            "fontColor": "#ffffff",
                            "height": 26,
                            "row": 0,
                            "width": 100
                        },
                        "type": "text"
                    },
                    {
                        "binding": "photo",
                        "type": "picture",
                        "style": {
                            "borderColor": "transparent",
                            "borderWidth": 10,
                            "column": 0,
                            "height": 80,
                            "row": 1,
                            "width": 80
                        }
                    },
                    {
                        "units": [
                            {
                                "binding": "position",
                                "style": {
                                    "backgroundColor": "transparent",
                                    "borderColor": "transparent",
                                    "borderRadius": "0 0 0 8",
                                    "column": 0,
                                    "fontSize": 12,
                                    "height": 27,
                                    "row": 0,
                                    "width": 44
                                },
                                "type": "text"
                            },
                            {
                                "binding": "emp_nm",
                                "style": {
                                    "backgroundColor": "transparent",
                                    "borderColor": "transparent",
                                    "borderRadius": "0 0 8 0",
                                    "column": 1,
                                    "fontSize": 12,
                                    "height": 27,
                                    "row": 0,
                                    "width": 44
                                },
                                "type": "text"
                            }
                        ],
                        "type": "table",
                        "style": {
                            "column": 0,
                            "row": 2
                        }
                    },
                    {
                        "units": [
                            {
                                "binding": "photo",
                                "type": "picture",
                                "style": {
                                    "borderColor": "transparent",
                                    "borderWidth": 10,
                                    "column": 0,
                                    "height": 35,
                                    "row": 0,
                                    "width": 35
                                }
                            },
                            {
                                "units": [
                                    {
                                        "binding": "position",
                                        "style": {
                                            "backgroundColor": "transparent",
                                            "borderColor": "transparent",
                                            "borderRadius": "0 0 0 8",
                                            "column": 0,
                                            "fontSize": 12,
                                            "height": 27,
                                            "row": 0,
                                            "width": 40
                                        },
                                        "type": "text"
                                    },
                                    {
                                        "binding": "emp_nm",
                                        "style": {
                                            "backgroundColor": "transparent",
                                            "borderColor": "transparent",
                                            "borderRadius": "0 0 8 0",
                                            "column": 0,
                                            "fontSize": 12,
                                            "height": 27,
                                            "row": 1,
                                            "width": 40
                                        },
                                        "type": "text"
                                    }
                                ],
                                "type": "table",
                                "style": {
                                    "column": 1,
                                    "row": 0
                                }
                            }
                        ],
                        "type": "list",
                        "style": {
                            "column": 0,
                            "row": 3
                        }
                    }
                ],
                "type": "table",
                "style": {
                    "borderColor": "#b1b1b1",
                    "borderRadius": "5 5 0 0",
                    "borderWidth": 1
                }
            },
            "tableLabel": {
                "isLabel": "true",
                "units": [
                    {
                        "value": "조직",
                        "style": {
                            "fontColor": "#ffffff",
                            "fontWeight": "bold",
                            "borderColor": "#FFFFFF",
                            "borderWidth": 1,
                            "backgroundColor": "#3399FF",
                            "column": 0,
                            "fontSize": 12,
                            "height": 27,
                            "row": 0,
                            "width": 90
                        },
                        "type": "text"
                    },
                    {
                        "value": "인원수",
                        "style": {
                            "fontColor": "#ffffff",
                            "fontWeight": "bold",
                            "borderColor": "#FFFFFF",
                            "borderWidth": 1,
                            "backgroundColor": "#3399FF",
                            "column": 1,
                            "fontSize": 12,
                            "height": 27,
                            "row": 0,
                            "width": 90
                        },
                        "type": "text"
                    },
                    {
                        "value": "S/W 개발팀",
                        "style": {
                            "borderColor": "#FFFFFF",
                            "borderWidth": 1,
                            "column": 0,
                            "fontSize": 12,
                            "height": 27,
                            "row": 1,
                            "width": 90
                        },
                        "type": "text"
                    },
                    {
                        "value": "5",
                        "style": {
                            "borderColor": "#FFFFFF",
                            "borderWidth": 1,
                            "column": 1,
                            "fontSize": 12,
                            "height": 27,
                            "row": 1,
                            "width": 90
                        },
                        "type": "text"
                    },
                    {
                        "value": "기술연구소",
                        "style": {
                            "borderColor": "#FFFFFF",
                            "borderWidth": 1,
                            "column": 0,
                            "fontSize": 12,
                            "height": 27,
                            "row": 2,
                            "width": 90
                        },
                        "type": "text"
                    },
                    {
                        "value": "1",
                        "style": {
                            "borderColor": "#FFFFFF",
                            "borderWidth": 1,
                            "column": 1,
                            "fontSize": 12,
                            "height": 27,
                            "row": 2,
                            "width": 90
                        },
                        "type": "text"
                    },
                    {
                        "value": "기술지원팀",
                        "style": {
                            "borderColor": "#FFFFFF",
                            "borderWidth": 1,
                            "column": 0,
                            "fontSize": 12,
                            "height": 27,
                            "row": 3,
                            "width": 90
                        },
                        "type": "text"
                    },
                    {
                        "value": "1",
                        "style": {
                            "borderColor": "#FFFFFF",
                            "borderWidth": 1,
                            "column": 1,
                            "fontSize": 12,
                            "height": 27,
                            "row": 3,
                            "width": 90
                        },
                        "type": "text"
                    },
                    {
                        "value": "영업팀",
                        "style": {
                            "borderColor": "#FFFFFF",
                            "borderWidth": 1,
                            "column": 0,
                            "fontSize": 12,
                            "height": 27,
                            "row": 4,
                            "width": 90
                        },
                        "type": "text"
                    },
                    {
                        "value": "1",
                        "style": {
                            "borderColor": "#FFFFFF",
                            "borderWidth": 1,
                            "column": 1,
                            "fontSize": 12,
                            "height": 27,
                            "row": 4,
                            "width": 90
                        },
                        "type": "text"
                    }
                ],
                "type": "table",
                "style": {
                    "backgroundColor": "#f5f5f5"
                }
            }
        },
        "links": {
            "linkSolid": {
                "style": {
                    "borderWidth": 2,
                    "borderColor": "#00AA66",
                    "borderStyle": "solid"
                }
            },
            "linkDash": {
                "style": {
                    "borderWidth": 2,
                    "borderColor": "#8888FF",
                    "borderStyle": "dash"
                }
            },
            "linkDot": {
                "style": {
                    "borderWidth": 2,
                    "borderColor": "#FF8888",
                    "borderStyle": "dot"
                }
            }
        }
    }
}